test/waves.vcd
$date
	Thu Feb 26 21:43:13 2026
$end

$version
	Synopsys VCS version X-2025.06-SP1-1_Full64
$end

$timescale
	1ps
$end

$comment Csum: 1 09647e1c4b773d1b $end


$scope module tb_microcore16 $end
$var reg 1 ! clk $end
$var reg 1 " rst_n $end
$var reg 1 # ena $end
$var wire 8 $ ui_in [7:0] $end
$var wire 8 % uio_in [7:0] $end
$var wire 8 & uo_out [7:0] $end
$var wire 8 ' uio_out [7:0] $end
$var wire 8 ( uio_oe [7:0] $end
$var wire 8 ) ui_in_drive [7:0] $end
$var wire 8 * uio_in_drive [7:0] $end
$var reg 32 + prog_pc [31:0] $end
$var reg 64 , cycles [63:0] $end
$var reg 64 - retired [63:0] $end
$var reg 64 . mem_reads [63:0] $end
$var reg 64 / mem_writes [63:0] $end
$var reg 64 0 shift_steps [63:0] $end

$scope module dut $end
$var wire 1 1 clk $end
$var wire 1 2 rst_n $end
$var wire 1 3 ena $end
$var wire 8 $ ui_in [7:0] $end
$var wire 8 & uo_out [7:0] $end
$var wire 8 % uio_in [7:0] $end
$var wire 8 ' uio_out [7:0] $end
$var wire 8 ( uio_oe [7:0] $end
$var wire 1 4 core_clk $end

$scope module u_core $end
$var reg 16 5 ir_lo_q [15:0] $end
$var reg 16 6 ir_hi_q [15:0] $end
$var reg 1 7 clk $end
$var reg 1 8 rst_n $end
$var reg 8 9 ui_in [7:0] $end
$var reg 8 : uo_out [7:0] $end
$var reg 8 ; uio_in [7:0] $end
$var reg 8 < uio_out [7:0] $end
$var reg 8 = uio_oe [7:0] $end
$var reg 32 > pc_q [31:0] $end
$var reg 32 ? pc_d [31:0] $end
$var reg 16 @ ir_lo_d [15:0] $end
$var reg 16 A ir_hi_d [15:0] $end
$var reg 1 B ir_lo_we $end
$var reg 1 C ir_hi_we $end
$var reg 16 D a_lo_q [15:0] $end
$var reg 16 E a_hi_q [15:0] $end
$var reg 16 F b_lo_q [15:0] $end
$var reg 16 G b_hi_q [15:0] $end
$var reg 1 H ab_latch_we $end
$var reg 16 I r_lo_q [15:0] $end
$var reg 16 J r_hi_q [15:0] $end
$var reg 1 K r_lo_we $end
$var reg 1 L r_hi_we $end
$var reg 1 M r_use_ext $end
$var reg 16 N r_ext_lo [15:0] $end
$var reg 16 O r_ext_hi [15:0] $end
$var reg 1 P carry_q $end
$var reg 1 Q carry_d $end
$var reg 1 R carry_we $end
$var reg 16 S mem_buf_lo_q [15:0] $end
$var reg 16 T mem_buf_hi_q [15:0] $end
$var reg 1 U mem_buf_lo_we $end
$var reg 1 V mem_buf_hi_we $end
$var reg 16 W addr_lo_q [15:0] $end
$var reg 16 X addr_hi_q [15:0] $end
$var reg 1 Y addr_lo_we $end
$var reg 1 Z addr_hi_we $end
$var reg 32 [ ir32 [31:0] $end
$var reg 7 \ opcode [6:0] $end
$var reg 3 ] funct3 [2:0] $end
$var reg 7 ^ funct7 [6:0] $end
$var reg 5 _ rs1_5 [4:0] $end
$var reg 5 ` rs2_5 [4:0] $end
$var reg 5 a rd_5 [4:0] $end
$var reg 4 b rs1 [3:0] $end
$var reg 4 c rs2 [3:0] $end
$var reg 4 d rd [3:0] $end
$var reg 1 e illegal_rs1 $end
$var reg 1 f illegal_rs2 $end
$var reg 1 g illegal_rd $end
$var reg 5 h shamt5 [4:0] $end
$var reg 32 i imm32 [31:0] $end
$var reg 16 j imm_lo [15:0] $end
$var reg 16 k imm_hi [15:0] $end
$var reg 16 l rf_rs1_lo [15:0] $end
$var reg 16 m rf_rs1_hi [15:0] $end
$var reg 16 n rf_rs2_lo [15:0] $end
$var reg 16 o rf_rs2_hi [15:0] $end
$var reg 1 p rf_we $end
$var reg 4 q rf_waddr [3:0] $end
$var reg 16 r rf_wdata_lo [15:0] $end
$var reg 16 s rf_wdata_hi [15:0] $end
$var reg 32 t pc_inst [31:0] $end
$var reg 4 u alu_op [3:0] $end
$var reg 16 v alu_a [15:0] $end
$var reg 16 w alu_b [15:0] $end
$var reg 16 x alu_y [15:0] $end
$var reg 1 y alu_cin $end
$var reg 1 z alu_cout $end
$var reg 1 { alu_z $end
$var reg 1 | alu_n $end
$var reg 3 } alu_a_sel [2:0] $end
$var reg 3 ~ alu_b_sel [2:0] $end
$var reg 1 "! alu_use_carry_in $end
$var reg 1 "" mem_valid $end
$var reg 1 "# mem_ready $end
$var reg 1 "$ mem_we $end
$var reg 16 "% mem_addr16 [15:0] $end
$var reg 16 "& mem_wdata16 [15:0] $end
$var reg 16 "' mem_rdata16 [15:0] $end

$scope module u_rf $end
$var reg 1 "( clk $end
$var reg 1 ") rst_n $end
$var reg 4 "* raddr1 [3:0] $end
$var reg 16 "+ rdata1_lo [15:0] $end
$var reg 16 ", rdata1_hi [15:0] $end
$var reg 4 "- raddr2 [3:0] $end
$var reg 16 ". rdata2_lo [15:0] $end
$var reg 16 "/ rdata2_hi [15:0] $end
$var reg 1 "0 we $end
$var reg 4 "1 waddr [3:0] $end
$var reg 16 "2 wdata_lo [15:0] $end
$var reg 16 "3 wdata_hi [15:0] $end

$scope begin init_rf $end
$var integer 32 "4 i $end
$upscope $end

$upscope $end


$scope module u_alu16 $end
$var reg 16 "5 a [15:0] $end
$var reg 16 "6 b [15:0] $end
$var reg 4 "7 op [3:0] $end
$var reg 1 "8 cin $end
$var reg 16 "9 y [15:0] $end
$var reg 1 ": cout $end
$var reg 1 "; z $end
$var reg 1 "< n $end
$var reg 17 "= tmp [16:0] $end
$upscope $end


$scope module u_memio $end
$var reg 2 "> ms_q [1:0] $end
$var reg 1 "? we_q $end
$var reg 1 "@ clk $end
$var reg 1 "A rst_n $end
$var reg 1 "B mem_valid $end
$var reg 1 "C mem_ready $end
$var reg 1 "D mem_we $end
$var reg 16 "E mem_addr16 [15:0] $end
$var reg 16 "F mem_wdata16 [15:0] $end
$var reg 16 "G mem_rdata16 [15:0] $end
$var reg 8 "H ui_in [7:0] $end
$var reg 8 "I uo_out [7:0] $end
$var reg 8 "J uio_in [7:0] $end
$var reg 8 "K uio_out [7:0] $end
$var reg 8 "L uio_oe [7:0] $end
$var reg 2 "M ms_d [1:0] $end
$var reg 1 "N we_d $end
$var reg 16 "O addr_q [15:0] $end
$var reg 16 "P addr_d [15:0] $end
$var reg 16 "Q wdata_q [15:0] $end
$var reg 16 "R wdata_d [15:0] $end
$var reg 16 "S rdata_hold_q [15:0] $end
$var reg 16 "T rdata_hold_d [15:0] $end
$var reg 1 "U ready_pulse $end
$var reg 16 "V out_word16 [15:0] $end
$var reg 1 "W drive_uio $end
$upscope $end


$scope module u_ctrl $end
$var reg 6 "X st_q [5:0] $end
$var reg 1 "Y clk $end
$var reg 1 "Z rst_n $end
$var reg 7 "[ opcode [6:0] $end
$var reg 3 "\ funct3 [2:0] $end
$var reg 7 "] funct7 [6:0] $end
$var reg 4 "^ rs1 [3:0] $end
$var reg 4 "_ rs2 [3:0] $end
$var reg 4 "` rd [3:0] $end
$var reg 1 "a illegal_rs1 $end
$var reg 1 "b illegal_rs2 $end
$var reg 1 "c illegal_rd $end
$var reg 5 "d shamt5 [4:0] $end
$var reg 1 "e alu_z $end
$var reg 1 "f alu_n $end
$var reg 1 "g alu_cout $end
$var reg 16 "h alu_y [15:0] $end
$var reg 1 "i mem_ready $end
$var reg 16 "j imm_lo [15:0] $end
$var reg 16 "k imm_hi [15:0] $end
$var reg 16 "l mem_rdata16 [15:0] $end
$var reg 32 "m pc_q [31:0] $end
$var reg 32 "n pc_d [31:0] $end
$var reg 1 "o ir_lo_we $end
$var reg 1 "p ir_hi_we $end
$var reg 16 "q ir_lo_d [15:0] $end
$var reg 16 "r ir_hi_d [15:0] $end
$var reg 1 "s ab_latch_we $end
$var reg 4 "t alu_op [3:0] $end
$var reg 3 "u alu_a_sel [2:0] $end
$var reg 3 "v alu_b_sel [2:0] $end
$var reg 1 "w alu_use_carry_in $end
$var reg 1 "x r_lo_we $end
$var reg 1 "y r_hi_we $end
$var reg 1 "z carry_we $end
$var reg 1 "{ r_use_ext $end
$var reg 16 "| r_ext_lo [15:0] $end
$var reg 16 "} r_ext_hi [15:0] $end
$var reg 1 "~ addr_lo_we $end
$var reg 1 #! addr_hi_we $end
$var reg 1 #" mem_buf_lo_we $end
$var reg 1 ## mem_buf_hi_we $end
$var reg 1 #$ rf_we $end
$var reg 4 #% rf_waddr [3:0] $end
$var reg 16 #& rf_wdata_lo [15:0] $end
$var reg 16 #' rf_wdata_hi [15:0] $end
$var reg 1 #( mem_valid $end
$var reg 1 #) mem_we $end
$var reg 16 #* mem_addr16 [15:0] $end
$var reg 16 #+ mem_wdata16 [15:0] $end
$var reg 16 #, a_lo [15:0] $end
$var reg 16 #- a_hi [15:0] $end
$var reg 16 #. b_lo [15:0] $end
$var reg 16 #/ b_hi [15:0] $end
$var reg 16 #0 r_lo [15:0] $end
$var reg 16 #1 r_hi [15:0] $end
$var reg 16 #2 addr_lo_q [15:0] $end
$var reg 16 #3 addr_hi_q [15:0] $end
$var reg 16 #4 mem_buf_lo [15:0] $end
$var reg 16 #5 mem_buf_hi [15:0] $end
$var reg 6 #6 st_d [5:0] $end
$var reg 4 #7 kind_q [3:0] $end
$var reg 4 #8 kind_d [3:0] $end
$var reg 4 #9 op_q [3:0] $end
$var reg 4 #: op_d [3:0] $end
$var reg 1 #; use_imm_q $end
$var reg 1 #< use_imm_d $end
$var reg 1 #= wb_en_q $end
$var reg 1 #> wb_en_d $end
$var reg 1 #? slt_unsigned_q $end
$var reg 1 #@ slt_unsigned_d $end
$var reg 3 #A br_funct3_q [2:0] $end
$var reg 3 #B br_funct3_d [2:0] $end
$var reg 1 #C eq_lo_q $end
$var reg 1 #D eq_lo_d $end
$var reg 3 #E mem_funct3_q [2:0] $end
$var reg 3 #F mem_funct3_d [2:0] $end
$var reg 1 #G sh_dir_q $end
$var reg 1 #H sh_dir_d $end
$var reg 1 #I sh_arith_q $end
$var reg 1 #J sh_arith_d $end
$var reg 1 #K sh_amt_is_imm_q $end
$var reg 1 #L sh_amt_is_imm_d $end
$var reg 5 #M sh_count_q [4:0] $end
$var reg 5 #N sh_count_d [4:0] $end
$var reg 1 #O is_op $end
$var reg 1 #P is_opimm $end
$var reg 1 #Q is_load $end
$var reg 1 #R is_store $end
$var reg 1 #S is_branch $end
$var reg 1 #T is_jal $end
$var reg 1 #U is_jalr $end
$var reg 1 #V is_lui $end
$var reg 1 #W is_auipc $end
$var reg 32 #X pc_inst [31:0] $end
$var reg 1 #Y cmp_eq_full $end
$var reg 1 #Z cmp_lt_u $end
$var reg 1 #[ cmp_lt_s $end
$var reg 1 #\ cmp_take $end
$var reg 32 #] load32 [31:0] $end
$var reg 8 #^ load_b8 [7:0] $end
$var reg 16 #_ load_h16 [15:0] $end
$var reg 5 #` shamt_sel [4:0] $end
$var reg 16 #a sh_nlo [15:0] $end
$var reg 16 #b sh_nhi [15:0] $end
$upscope $end

$upscope $end

$upscope $end


$scope module u_mem $end
$var reg 1 #c clk $end
$var reg 1 #d rst_n $end
$var reg 8 #e uo_out [7:0] $end
$var reg 8 #f uio_out [7:0] $end
$var reg 8 #g uio_oe [7:0] $end
$var reg 8 #h ui_in_drive [7:0] $end
$var reg 8 #i uio_in_drive [7:0] $end
$var reg 1 #j phase_q [0:0] $end
$var reg 1 #k phase_d [0:0] $end
$var reg 16 #l addr_q [15:0] $end
$var reg 16 #m addr_d [15:0] $end
$var reg 16 #n dut_word16 [15:0] $end
$var reg 15 #o hword_idx [14:0] $end

$scope begin unnamed$$_0 $end
$var integer 32 #p i $end
$upscope $end


$scope begin unnamed$$_1 $end
$var reg 16 #q rword [15:0] $end
$var reg 15 #r ridx [14:0] $end
$upscope $end


$scope begin unnamed$$_2 $end
$var reg 15 #s widx [14:0] $end
$upscope $end

$upscope $end

$upscope $end

$enddefinitions $end

#0
$dumpvars
0H
0Z
0Y
0z
0"!
xQ
0P
0R
0!
0#Y
0#[
0#Z
0#\
0"W
13
1#
0#D
0#C
0C
0B
0#W
0#S
0#T
0#U
0#Q
0#V
0#O
0#P
0#R
0V
0U
0"#
1""
0"$
0L
0K
0M
0"U
0"
0#L
0#K
0#J
0#I
0#H
0#G
0#@
0#?
x"c
x"b
x"a
xe
xf
xg
0"s
0#!
0"~
0"g
0"f
0"w
1"e
0"z
0"p
0"o
0##
0#"
0"i
1#(
0#)
0"y
0"x
0"{
0#$
0"Z
0"C
1"B
0"D
0"A
b00000000 )
b00000000 *
0#<
0#;
0#>
0#=
0"N
0"?
b0000000000000000 #-
b0000000000000000 E
b0000000000000000 #,
b0000000000000000 D
b0000000000000000 "P
b0000000000000000 X
b0000000000000000 W
b0000000000000000 "O
b0000000000000000 v
b000 }
b0000000000000000 w
b000 ~
b0000 u
b0000000000000000 x
b0000000000000000 #/
b0000000000000000 G
b0000000000000000 #.
b0000000000000000 F
b000 #B
b000 #A
b00000000000000000000000000000000 i
b00000000000000000000000000000000 [
b0000000000000000 A
b0000000000000000 6
b0000000000000000 @
b0000000000000000 5
b0000 #8
b0000 #7
b00000000000000000000000000000000 #]
b00000000 #^
b0000000000000000 #_
b0000000000000000 "%
b0000000000000000 #5
b0000000000000000 T
b0000000000000000 #4
b0000000000000000 S
b010 #F
b010 #E
b0000000000000000 "'
b0000000000000000 "&
b01 "M
b00 ">
b0000 #:
b0000 #9
b0000000000000000 "V
b00000000000000000000000000000000 ?
b11111111111111111111111111111100 t
b00000000000000000000000000000000 >
b0000000000000000 O
b0000000000000000 N
b0000000000000000 #1
b0000000000000000 J
b0000000000000000 #0
b0000000000000000 I
b0000000000000000 "T
b0000000000000000 "S
b0000000000000000 m
b0000000000000000 l
b0000000000000000 o
b0000000000000000 n
b0000 q
b0000000000000000 s
b0000000000000000 r
b00000 #N
b00000 #M
b0000000000000000 #b
b0000000000000000 #a
b00000 h
b00000 #`
b000000 #6
b000000 "X
bxxxxxxx \
bxxxxxxx "[
bxxx ]
bxxxxxxxxxxxxxxxx "k
bxxxxxxx ^
bxxxxxxxxxxxxxxxx "j
bxxxxx _
bxxxxx `
bxxxx "`
bxxxxx a
bxxxxxxxxxxxxxxxx j
bxxxx "_
bxxxxxxxxxxxxxxxx k
bxxxxxxx "]
bxxxx "^
bxxxx b
bxxxx c
bxxx "\
bxxxx d
b00000000 9
b00000000 ;
b00000000 =
b00000000 <
b00000000 :
b0000000000000000 #3
b0000000000000000 #2
b000 "u
b000 "v
b0000 "t
b0000000000000000 "h
b0000000000000000 "r
b0000000000000000 "q
b0000000000000000 #*
b0000000000000000 "l
b0000000000000000 #+
b00000000000000000000000000000000 "n
b11111111111111111111111111111100 #X
b00000000000000000000000000000000 "m
b0000000000000000 "}
b0000000000000000 "|
b0000 #%
b0000000000000000 #'
b0000000000000000 #&
b00000 "d
b0000000000000000 "E
b0000000000000000 "G
b0000000000000000 "F
b00000000 "H
b00000000 "J
b00000000 "L
b00000000 "K
b00000000 "I
b00000000 $
b00000000 %
b00000000 (
b00000000 '
b00000000 &
b0000000000000000 "R
b0000000000000000 "Q
b0000000000000000000000000000000000000000000000000000000000000000 ,
b0000000000000000000000000000000000000000000000000000000000000000 .
b0000000000000000000000000000000000000000000000000000000000000000 /
b00000000000000000000000000100000 +
b0000000000000000000000000000000000000000000000000000000000000000 -
b0000000000000000000000000000000000000000000000000000000000000000 0
0#k
0#j
b0000000000000000 #m
b0000000000000000 #l
b0000000000000000 #n
b000000000000000 #o
b00000000 #h
b00000000 #i
b00000000 #g
b00000000 #f
b00000000000000001000000000000000 #p
bxxxxxxxxxxxxxxx #r
bxxxxxxxxxxxxxxxx #q
bxxxxxxxxxxxxxxx #s
b00000000 #e
b00000000000000000000000000010000 "4
b0000 "*
b0000 "-
b0000000000000000 ",
b0000000000000000 "+
b0000000000000000 "/
b0000000000000000 ".
b0000 "1
b0000000000000000 "3
b0000000000000000 "2
0":
b0000000000000000 "5
b0000000000000000 "6
b0000 "7
b00000000000000000 "=
b0000000000000000 "9
0#c
07
0"@
0"Y
0"(
08
0")
0p
0"0
0y
0"8
01
04
1";
1{
0"<
0|
02
0#d
$end
b0000000 \
b000 ]
b0000000 ^
b00000 _
b00000 `
b00000 a
b0000000000000000 j
b0000000000000000 k
b0000000 "]
b0000 b
b0000 c
0e
0f
b000 "\
b0000 d
0g
b0000000 "[
b0000000000000000 "k
b0000000000000000 "j
0"c
b0000 "`
0"b
b0000 "_
0"a
b0000 "^
#5000
1!
11
14
1#c
17
1"@
1"Y
1"(
#10000
0!
01
04
0#c
07
0"@
0"Y
0"(
#15000
1!
11
14
1#c
17
1"@
1"Y
1"(
#20000
0!
01
04
0#c
07
0"@
0"Y
0"(
#25000
1!
11
14
1#c
17
1"@
1"Y
1"(
#30000
0!
01
04
0#c
07
0"@
0"Y
0"(
#35000
1!
11
14
1#c
17
1"@
1"Y
1"(
#40000
0!
01
04
0#c
07
0"@
0"Y
0"(
#45000
1!
11
14
1#c
17
1"@
1"Y
1"(
1"
1#d
12
18
1")
1"Z
1"A
b0000000000000000000000000000000000000000000000000000000000000001 ,
b01 ">
b10 "M
b11111111 "L
b11111111 =
b11111111 (
b11111111 #g
1"W
1#k
#50000
0!
01
04
0#c
07
0"@
0"Y
0"(
#55000
1!
11
14
1#c
17
1"@
1"Y
1"(
b0000000000000000000000000000000000000000000000000000000000000010 ,
1#j
b10 ">
0#k
1"U
b00 "M
b00000000 "L
b00000000 =
b00000000 (
b00000000 #g
0"W
1"C
1"#
1"i
b0000000010010011 #q
b000000000000000 #r
b10010011 #h
b10010011 )
b10010011 $
b10010011 9
b10010011 "H
b000001 #6
b0000000010010011 "T
#60000
0!
01
04
0#c
07
0"@
0"Y
0"(
#65000
1!
11
14
1#c
17
1"@
1"Y
1"(
b0000000000000000000000000000000000000000000000000000000000000000 ,
b0000000000000000000000000000000000000000000000000000000000000001 ,
b0000000000000000000000000000000000000000000000000000000000000001 .
0#j
b00 ">
b0000000010010011 "S
b0000000010010011 "G
b0000000010010011 "'
b0000000010010011 "l
b000001 "X
b00000000 #h
b00000000 )
b00000000 $
b00000000 9
b00000000 "H
0"U
b01 "M
0"C
0"#
0"i
0#(
0""
0"B
b0000000010010011 "r
b0000000010010011 A
b0000000010010011 "q
b0000000010010011 @
1"o
1B
b00000000000000000000000000000010 "n
b00000000000000000000000000000010 ?
b000010 #6
b00 "M
#70000
0!
01
04
0#c
07
0"@
0"Y
0"(
#75000
1!
11
14
1#c
17
1"@
1"Y
1"(
b0000000000000000000000000000000000000000000000000000000000000010 ,
b00000000000000000000000000000010 >
b00000000000000000000000000000010 "m
b11111111111111111111111111111110 #X
b11111111111111111111111111111110 t
b0000000010010011 5
b00000000000000000000000010010011 [
b0010011 \
b00001 a
b0001 d
b0010011 "[
b0001 "`
b000010 "X
b0000000000000010 #*
b0000000000000010 "%
b0000000000000010 "E
1#(
1""
1"B
0"o
0B
1#P
b0000000000000010 "P
b01 "M
#80000
0!
01
04
0#c
07
0"@
0"Y
0"(
#85000
1!
11
14
1#c
17
1"@
1"Y
1"(
b0000000000000000000000000000000000000000000000000000000000000011 ,
b01 ">
b0000000000000010 "O
b10 "M
b11111111 "L
b11111111 =
b11111111 (
b11111111 #g
b00000010 "I
b00000010 :
b00000010 &
b00000010 #e
b0000000000000010 #n
1"W
b0000000000000010 "V
b0000000000000010 #m
1#k
b000000000000001 #o
#90000
0!
01
04
0#c
07
0"@
0"Y
0"(
#95000
1!
11
14
1#c
17
1"@
1"Y
1"(
b0000000000000000000000000000000000000000000000000000000000000100 ,
1#j
b0000000000000010 #l
b10 ">
0#k
1"U
b0000000000000000 "T
b00 "M
b00000000 "L
b00000000 =
b00000000 (
b00000000 #g
b00000000 "I
b00000000 :
b00000000 &
b00000000 #e
b0000000000000000 #n
0"W
b0000000000000000 "V
1"C
1"#
1"i
b0000000001010000 #q
b000000000000001 #r
b01010000 #h
b01010000 )
b01010000 $
b01010000 9
b01010000 "H
b000000000000000 #o
b000011 #6
b0000000001010000 "T
#100000
0!
01
04
0#c
07
0"@
0"Y
0"(
#105000
1!
11
14
1#c
17
1"@
1"Y
1"(
b0000000000000000000000000000000000000000000000000000000000000101 ,
b0000000000000000000000000000000000000000000000000000000000000010 .
0#j
b00 ">
b0000000001010000 "S
b0000000001010000 "G
b0000000001010000 "'
b0000000001010000 "l
b000011 "X
b00000000 #h
b00000000 )
b00000000 $
b00000000 9
b00000000 "H
0"U
b01 "M
0"C
0"#
0"i
b0000000000000000 #*
b0000000000000000 "%
b0000000000000000 "E
0#(
0""
0"B
b0000000001010000 "r
b0000000001010000 A
b0000000001010000 "q
b0000000001010000 @
1"p
1C
b00000000000000000000000000000100 "n
b00000000000000000000000000000100 ?
b000100 #6
b00 "M
#110000
0!
01
04
0#c
07
0"@
0"Y
0"(
#115000
1!
11
14
1#c
17
1"@
1"Y
1"(
b0000000000000000000000000000000000000000000000000000000000000110 ,
b00000000000000000000000000000100 >
b00000000000000000000000000000100 "m
b00000000000000000000000000000000 #X
b00000000000000000000000000000000 t
b0000000001010000 6
b00000000010100000000000010010011 [
b00101 `
b0101 c
b0101 "_
b00101 h
b00101 "d
b000100 "X
b000 #F
1#>
1#<
b0001 #8
1"s
1H
0"p
0C
b000101 #6
b00000000000000000000000000000101 i
b0000000000000101 j
b0000000000000101 "j
b0101 "-
#120000
0!
01
04
0#c
07
0"@
0"Y
0"(
#125000
1!
11
14
1#c
17
1"@
1"Y
1"(
b0000000000000000000000000000000000000000000000000000000000000111 ,
b000101 "X
b0001 #7
1#;
1#=
b000 #E
1"z
1R
1"x
1K
b011 "v
b011 ~
0"s
0H
b000110 #6
b0000000000000101 w
b0000000000000101 "6
b00000000000000101 "=
b0000000000000101 "9
0";
0{
0"e
b0000000000000101 x
b0000000000000101 "h
#130000
0!
01
04
0#c
07
0"@
0"Y
0"(
#135000
1!
11
14
1#c
17
1"@
1"Y
1"(
b0000000000000000000000000000000000000000000000000000000000001000 ,
b0000000000000101 I
b0000000000000101 #0
b000110 "X
0"z
0R
1"y
1L
0"x
0K
1"w
1"!
b100 "v
b100 ~
b001 "u
b001 }
b000111 #6
b0000000000000000 w
b0000000000000000 "6
b00000000000000000 "=
b0000000000000000 "9
1";
1{
1"e
b0000000000000000 x
b0000000000000000 "h
#140000
0!
01
04
0#c
07
0"@
0"Y
0"(
#145000
1!
11
14
1#c
17
1"@
1"Y
1"(
b0000000000000000000000000000000000000000000000000000000000001001 ,
b000111 "X
b0000000000000101 #&
b0000000000000101 r
b0000000000000101 "2
b0001 #%
b0001 q
b0001 "1
1#$
1p
1"0
0"y
0L
0"w
0"!
b000 "v
b000 ~
b000 "u
b000 }
b000000 #6
#150000
0!
01
04
0#c
07
0"@
0"Y
0"(
#155000
1!
11
14
1#c
17
1"@
1"Y
1"(
b0000000000000000000000000000000000000000000000000000000000001010 ,
b0000000000000000000000000000000000000000000000000000000000000001 -
b000000 "X
b0000000000000100 #*
b0000000000000100 "%
b0000000000000100 "E
1#(
1""
1"B
b0000000000000000 #&
b0000000000000000 r
b0000000000000000 "2
b0000 #%
b0000 q
b0000 "1
0#$
0p
0"0
b0000000000000100 "P
b01 "M
#160000
0!
01
04
0#c
07
0"@
0"Y
0"(
#165000
1!
11
14
1#c
17
1"@
1"Y
1"(
b0000000000000000000000000000000000000000000000000000000000001011 ,
b01 ">
b0000000000000100 "O
b10 "M
b11111111 "L
b11111111 =
b11111111 (
b11111111 #g
b00000100 "I
b00000100 :
b00000100 &
b00000100 #e
b0000000000000100 #n
1"W
b0000000000000100 "V
b0000000000000100 #m
1#k
b000000000000010 #o
#170000
0!
01
04
0#c
07
0"@
0"Y
0"(
#175000
1!
11
14
1#c
17
1"@
1"Y
1"(
b0000000000000000000000000000000000000000000000000000000000001100 ,
1#j
b0000000000000100 #l
b10 ">
0#k
1"U
b0000000000000000 "T
b00 "M
b00000000 "L
b00000000 =
b00000000 (
b00000000 #g
b00000000 "I
b00000000 :
b00000000 &
b00000000 #e
b0000000000000000 #n
0"W
b0000000000000000 "V
1"C
1"#
1"i
b0000000100010011 #q
b000000000000010 #r
b00000001 #i
b00000001 *
b00000001 %
b00000001 ;
b00000001 "J
b00010011 #h
b00010011 )
b00010011 $
b00010011 9
b00010011 "H
b000000000000000 #o
b000001 #6
b0000000100010011 "T
#180000
0!
01
04
0#c
07
0"@
0"Y
0"(
#185000
1!
11
14
1#c
17
1"@
1"Y
1"(
b0000000000000000000000000000000000000000000000000000000000001101 ,
b0000000000000000000000000000000000000000000000000000000000000011 .
0#j
b00 ">
b0000000100010011 "S
b0000000100010011 "G
b0000000100010011 "'
b0000000100010011 "l
b000001 "X
b00000000 #i
b00000000 *
b00000000 %
b00000000 ;
b00000000 "J
b00000000 #h
b00000000 )
b00000000 $
b00000000 9
b00000000 "H
0"U
b01 "M
0"C
0"#
0"i
b0000000000000000 #*
b0000000000000000 "%
b0000000000000000 "E
0#(
0""
0"B
b0000000100010011 "r
b0000000100010011 A
b0000000100010011 "q
b0000000100010011 @
1"o
1B
b00000000000000000000000000000110 "n
b00000000000000000000000000000110 ?
b000010 #6
b00 "M
#190000
0!
01
04
0#c
07
0"@
0"Y
0"(
#195000
1!
11
14
1#c
17
1"@
1"Y
1"(
b0000000000000000000000000000000000000000000000000000000000001110 ,
b00000000000000000000000000000110 >
b00000000000000000000000000000110 "m
b00000000000000000000000000000010 #X
b00000000000000000000000000000010 t
b0000000100010011 5
b00000000010100000000000100010011 [
b00010 a
b0010 d
b0010 "`
b000010 "X
b0000000000000110 #*
b0000000000000110 "%
b0000000000000110 "E
1#(
1""
1"B
0"o
0B
b0000000000000110 "P
b01 "M
#200000
0!
01
04
0#c
07
0"@
0"Y
0"(
#205000
1!
11
14
1#c
17
1"@
1"Y
1"(
b0000000000000000000000000000000000000000000000000000000000001111 ,
b01 ">
b0000000000000110 "O
b10 "M
b11111111 "L
b11111111 =
b11111111 (
b11111111 #g
b00000110 "I
b00000110 :
b00000110 &
b00000110 #e
b0000000000000110 #n
1"W
b0000000000000110 "V
b0000000000000110 #m
1#k
b000000000000011 #o
#210000
0!
01
04
0#c
07
0"@
0"Y
0"(
#215000
1!
11
14
1#c
17
1"@
1"Y
1"(
b0000000000000000000000000000000000000000000000000000000000010000 ,
1#j
b0000000000000110 #l
b10 ">
0#k
1"U
b0000000000000000 "T
b00 "M
b00000000 "L
b00000000 =
b00000000 (
b00000000 #g
b00000000 "I
b00000000 :
b00000000 &
b00000000 #e
b0000000000000000 #n
0"W
b0000000000000000 "V
1"C
1"#
1"i
b1111111111010000 #q
b000000000000011 #r
b11111111 #i
b11111111 *
b11111111 %
b11111111 ;
b11111111 "J
b11010000 #h
b11010000 )
b11010000 $
b11010000 9
b11010000 "H
b000000000000000 #o
b000011 #6
b1111111111010000 "T
#220000
0!
01
04
0#c
07
0"@
0"Y
0"(
#225000
1!
11
14
1#c
17
1"@
1"Y
1"(
b0000000000000000000000000000000000000000000000000000000000010001 ,
b0000000000000000000000000000000000000000000000000000000000000100 .
0#j
b00 ">
b1111111111010000 "S
b1111111111010000 "G
b1111111111010000 "'
b1111111111010000 "l
b000011 "X
b00000000 #i
b00000000 *
b00000000 %
b00000000 ;
b00000000 "J
b00000000 #h
b00000000 )
b00000000 $
b00000000 9
b00000000 "H
0"U
b01 "M
0"C
0"#
0"i
b0000000000000000 #*
b0000000000000000 "%
b0000000000000000 "E
0#(
0""
0"B
b1111111111010000 "r
b1111111111010000 A
b1111111111010000 "q
b1111111111010000 @
1"p
1C
b00000000000000000000000000001000 "n
b00000000000000000000000000001000 ?
b000100 #6
b00 "M
#230000
0!
01
04
0#c
07
0"@
0"Y
0"(
#235000
1!
11
14
1#c
17
1"@
1"Y
1"(
b0000000000000000000000000000000000000000000000000000000000010010 ,
b00000000000000000000000000001000 >
b00000000000000000000000000001000 "m
b00000000000000000000000000000100 #X
b00000000000000000000000000000100 t
b1111111111010000 6
b11111111110100000000000100010011 [
b1111111 ^
b11101 `
b1111111 "]
b1101 c
1f
1"b
b1101 "_
b11101 h
b11101 "d
b000100 "X
1"s
1H
0"p
0C
b000101 #6
b11111111111111111111111111111101 i
b1111111111111101 j
b1111111111111111 k
b1111111111111111 "k
b1111111111111101 "j
b1101 "-
#240000
0!
01
04
0#c
07
0"@
0"Y
0"(
#245000
1!
11
14
1#c
17
1"@
1"Y
1"(
b0000000000000000000000000000000000000000000000000000000000010011 ,
b000101 "X
1"z
1R
1"x
1K
b011 "v
b011 ~
0"s
0H
b000110 #6
b1111111111111101 w
b1111111111111101 "6
b01111111111111101 "=
b1111111111111101 "9
1"<
1|
1"f
0";
0{
0"e
b1111111111111101 x
b1111111111111101 "h
#250000
0!
01
04
0#c
07
0"@
0"Y
0"(
#255000
1!
11
14
1#c
17
1"@
1"Y
1"(
b0000000000000000000000000000000000000000000000000000000000010100 ,
b1111111111111101 I
b1111111111111101 #0
b000110 "X
0"z
0R
1"y
1L
0"x
0K
1"w
1"!
b100 "v
b100 ~
b001 "u
b001 }
b000111 #6
b1111111111111111 w
b1111111111111111 "6
b01111111111111111 "=
b1111111111111111 "9
b1111111111111111 x
b1111111111111111 "h
#260000
0!
01
04
0#c
07
0"@
0"Y
0"(
